Week8 DAS
================
2023-03-03

    ## # A tibble: 193 × 5
    ##    country           beer_servings spirit_servings wine_servings total_litres_…¹
    ##    <chr>                     <int>           <int>         <int>           <dbl>
    ##  1 Afghanistan                   0               0             0             0  
    ##  2 Albania                      89             132            54             4.9
    ##  3 Algeria                      25               0            14             0.7
    ##  4 Andorra                     245             138           312            12.4
    ##  5 Angola                      217              57            45             5.9
    ##  6 Antigua & Barbuda           102             128            45             4.9
    ##  7 Argentina                   193              25           221             8.3
    ##  8 Armenia                      21             179            11             3.8
    ##  9 Australia                   261              72           212            10.4
    ## 10 Austria                     279              75           191             9.7
    ## # … with 183 more rows, and abbreviated variable name
    ## #   ¹​total_litres_of_pure_alcohol
…
